// Jest Snapshot v1, https://goo.gl/fbAQLP

exports[`loginerror loginerror 1`] = `
<div>
  <div
    class="sc-pGacB eJiPhE"
  >
    <div
      class="sc-jrAFXE fMryJM"
    >
      <form
        class="sc-dlfnuX doKiIy"
        name="signIn"
      >
        <h6
          class="MuiTypography-root MuiTypography-h6 MuiTypography-alignCenter css-z8xp0u-MuiTypography-root"
        >
          Пожалуйста введите логин и пароль
        </h6>
        <div
          class="MuiGrid-root MuiGrid-container MuiGrid-spacing-xs-[object Object] css-5qpq83-MuiGrid-root"
        >
          <div
            class="css-j86037-MuiStack-root"
          >
            <div
              class="MuiFormControl-root MuiTextField-root css-136h9lv-MuiFormControl-root-MuiTextField-root"
            >
              <label
                class="MuiInputLabel-root MuiInputLabel-formControl MuiInputLabel-animated MuiInputLabel-shrink MuiInputLabel-outlined MuiFormLabel-root MuiFormLabel-colorPrimary MuiFormLabel-filled Mui-required css-1kty9di-MuiFormLabel-root-MuiInputLabel-root"
                data-shrink="true"
                for="loginSignIn"
                id="loginSignIn-label"
              >
                Логин
                <span
                  aria-hidden="true"
                  class="MuiInputLabel-asterisk MuiFormLabel-asterisk css-wgai2y-MuiFormLabel-asterisk"
                >
                   
                  *
                </span>
              </label>
              <div
                class="MuiOutlinedInput-root MuiInputBase-root MuiInputBase-colorPrimary MuiInputBase-formControl css-9ddj71-MuiInputBase-root-MuiOutlinedInput-root"
              >
                <input
                  aria-invalid="false"
                  class="MuiOutlinedInput-input MuiInputBase-input css-1t8l2tu-MuiInputBase-input-MuiOutlinedInput-input"
                  id="loginSignIn"
                  name="login"
                  required=""
                  type="text"
                  value="qwertyu"
                />
                <fieldset
                  aria-hidden="true"
                  class="MuiOutlinedInput-notchedOutline css-1d3z3hw-MuiOutlinedInput-notchedOutline"
                >
                  <legend
                    class="css-186xcr5"
                  >
                    <span>
                      Логин
                       *
                    </span>
                  </legend>
                </fieldset>
              </div>
            </div>
            <div
              class="MuiFormControl-root MuiTextField-root css-136h9lv-MuiFormControl-root-MuiTextField-root"
            >
              <label
                class="MuiInputLabel-root MuiInputLabel-formControl MuiInputLabel-animated MuiInputLabel-outlined MuiFormLabel-root MuiFormLabel-colorPrimary Mui-required css-14s5rfu-MuiFormLabel-root-MuiInputLabel-root"
                data-shrink="false"
                for="passwordSignIn"
                id="passwordSignIn-label"
              >
                Введите пароль
                <span
                  aria-hidden="true"
                  class="MuiInputLabel-asterisk MuiFormLabel-asterisk css-wgai2y-MuiFormLabel-asterisk"
                >
                   
                  *
                </span>
              </label>
              <div
                class="MuiOutlinedInput-root MuiInputBase-root MuiInputBase-colorPrimary MuiInputBase-formControl css-9ddj71-MuiInputBase-root-MuiOutlinedInput-root"
              >
                <input
                  aria-invalid="false"
                  class="MuiOutlinedInput-input MuiInputBase-input css-1t8l2tu-MuiInputBase-input-MuiOutlinedInput-input"
                  id="passwordSignIn"
                  name="password"
                  required=""
                  type="password"
                  value=""
                />
                <fieldset
                  aria-hidden="true"
                  class="MuiOutlinedInput-notchedOutline css-1d3z3hw-MuiOutlinedInput-notchedOutline"
                >
                  <legend
                    class="css-dhh0px"
                  >
                    <span>
                      Введите пароль
                       *
                    </span>
                  </legend>
                </fieldset>
              </div>
            </div>
            <div
              class="MuiGrid-root MuiGrid-container MuiGrid-spacing-xs-undefined css-1hybrzf-MuiGrid-root"
            >
              <div
                class="MuiGrid-root css-1rbomey-MuiGrid-root"
              >
                <button
                  class="MuiButton-root MuiButton-contained MuiButton-containedPrimary MuiButton-sizeMedium MuiButton-containedSizeMedium MuiButtonBase-root css-sghohy-MuiButtonBase-root-MuiButton-root"
                  tabindex="0"
                  type="submit"
                >
                  Авторизироваться
                  <span
                    class="MuiTouchRipple-root css-8je8zh-MuiTouchRipple-root"
                  />
                </button>
              </div>
              <div
                class="MuiGrid-root css-1rbomey-MuiGrid-root"
              >
                <a
                  class="MuiButton-root MuiButton-contained MuiButton-containedPrimary MuiButton-sizeMedium MuiButton-containedSizeMedium MuiButtonBase-root css-sghohy-MuiButtonBase-root-MuiButton-root"
                  href="/car.wash/main"
                  tabindex="0"
                >
                  Отмена
                  <span
                    class="MuiTouchRipple-root css-8je8zh-MuiTouchRipple-root"
                  />
                </a>
              </div>
            </div>
          </div>
        </div>
      </form>
      <div
        class="MuiGrid-root MuiGrid-container MuiGrid-spacing-xs-undefined MuiGrid-direction-xs-column css-6gh8l0-MuiGrid-root"
      >
        <a
          class="MuiTypography-root MuiTypography-body1 MuiTypography-alignCenter css-1uwgr7b-MuiTypography-root"
          href="/"
        >
          Зарегистрироваться
        </a>
        <a
          class="MuiTypography-root MuiTypography-body1 MuiTypography-alignCenter css-1uwgr7b-MuiTypography-root"
          href="/"
        >
          Забыли пароль?
        </a>
        <a
          class="MuiTypography-root MuiTypography-body1 MuiTypography-alignCenter css-1uwgr7b-MuiTypography-root"
          href="/"
        >
          Забыли логин?
        </a>
      </div>
    </div>
  </div>
</div>
`;

exports[`loginerror loginerror 2`] = `
<div>
  <div
    class="sc-pGacB eJiPhE"
  >
    <div
      class="sc-jrAFXE fMryJM"
    >
      <form
        class="sc-dlfnuX doKiIy"
        name="signIn"
      >
        <h6
          class="MuiTypography-root MuiTypography-h6 MuiTypography-alignCenter css-z8xp0u-MuiTypography-root"
        >
          Пожалуйста введите логин и пароль
        </h6>
        <div
          class="MuiGrid-root MuiGrid-container MuiGrid-spacing-xs-[object Object] css-5qpq83-MuiGrid-root"
        >
          <div
            class="css-j86037-MuiStack-root"
          >
            <div
              class="MuiFormControl-root MuiTextField-root css-136h9lv-MuiFormControl-root-MuiTextField-root"
            >
              <label
                class="MuiInputLabel-root MuiInputLabel-formControl MuiInputLabel-animated MuiInputLabel-shrink MuiInputLabel-outlined MuiFormLabel-root MuiFormLabel-colorPrimary MuiFormLabel-filled Mui-required css-1kty9di-MuiFormLabel-root-MuiInputLabel-root"
                data-shrink="true"
                for="loginSignIn"
                id="loginSignIn-label"
              >
                Логин
                <span
                  aria-hidden="true"
                  class="MuiInputLabel-asterisk MuiFormLabel-asterisk css-wgai2y-MuiFormLabel-asterisk"
                >
                   
                  *
                </span>
              </label>
              <div
                class="MuiOutlinedInput-root MuiInputBase-root MuiInputBase-colorPrimary MuiInputBase-formControl css-9ddj71-MuiInputBase-root-MuiOutlinedInput-root"
              >
                <input
                  aria-invalid="false"
                  class="MuiOutlinedInput-input MuiInputBase-input css-1t8l2tu-MuiInputBase-input-MuiOutlinedInput-input"
                  id="loginSignIn"
                  name="login"
                  required=""
                  type="text"
                  value="qwertyu"
                />
                <fieldset
                  aria-hidden="true"
                  class="MuiOutlinedInput-notchedOutline css-1d3z3hw-MuiOutlinedInput-notchedOutline"
                >
                  <legend
                    class="css-186xcr5"
                  >
                    <span>
                      Логин
                       *
                    </span>
                  </legend>
                </fieldset>
              </div>
            </div>
            <div
              class="MuiFormControl-root MuiTextField-root css-136h9lv-MuiFormControl-root-MuiTextField-root"
            >
              <label
                class="MuiInputLabel-root MuiInputLabel-formControl MuiInputLabel-animated MuiInputLabel-shrink MuiInputLabel-outlined MuiFormLabel-root MuiFormLabel-colorPrimary MuiFormLabel-filled Mui-required css-1kty9di-MuiFormLabel-root-MuiInputLabel-root"
                data-shrink="true"
                for="passwordSignIn"
                id="passwordSignIn-label"
              >
                Введите пароль
                <span
                  aria-hidden="true"
                  class="MuiInputLabel-asterisk MuiFormLabel-asterisk css-wgai2y-MuiFormLabel-asterisk"
                >
                   
                  *
                </span>
              </label>
              <div
                class="MuiOutlinedInput-root MuiInputBase-root MuiInputBase-colorPrimary MuiInputBase-formControl css-9ddj71-MuiInputBase-root-MuiOutlinedInput-root"
              >
                <input
                  aria-invalid="false"
                  class="MuiOutlinedInput-input MuiInputBase-input css-1t8l2tu-MuiInputBase-input-MuiOutlinedInput-input"
                  id="passwordSignIn"
                  name="password"
                  required=""
                  type="password"
                  value="Qwerty-11"
                />
                <fieldset
                  aria-hidden="true"
                  class="MuiOutlinedInput-notchedOutline css-1d3z3hw-MuiOutlinedInput-notchedOutline"
                >
                  <legend
                    class="css-186xcr5"
                  >
                    <span>
                      Введите пароль
                       *
                    </span>
                  </legend>
                </fieldset>
              </div>
            </div>
            <div
              class="MuiGrid-root MuiGrid-container MuiGrid-spacing-xs-undefined css-1hybrzf-MuiGrid-root"
            >
              <div
                class="MuiGrid-root css-1rbomey-MuiGrid-root"
              >
                <button
                  class="MuiButton-root MuiButton-contained MuiButton-containedPrimary MuiButton-sizeMedium MuiButton-containedSizeMedium MuiButtonBase-root css-sghohy-MuiButtonBase-root-MuiButton-root"
                  tabindex="0"
                  type="submit"
                >
                  Авторизироваться
                  <span
                    class="MuiTouchRipple-root css-8je8zh-MuiTouchRipple-root"
                  />
                </button>
              </div>
              <div
                class="MuiGrid-root css-1rbomey-MuiGrid-root"
              >
                <a
                  class="MuiButton-root MuiButton-contained MuiButton-containedPrimary MuiButton-sizeMedium MuiButton-containedSizeMedium MuiButtonBase-root css-sghohy-MuiButtonBase-root-MuiButton-root"
                  href="/car.wash/main"
                  tabindex="0"
                >
                  Отмена
                  <span
                    class="MuiTouchRipple-root css-8je8zh-MuiTouchRipple-root"
                  />
                </a>
              </div>
            </div>
          </div>
        </div>
      </form>
      <div
        class="MuiGrid-root MuiGrid-container MuiGrid-spacing-xs-undefined MuiGrid-direction-xs-column css-6gh8l0-MuiGrid-root"
      >
        <a
          class="MuiTypography-root MuiTypography-body1 MuiTypography-alignCenter css-1uwgr7b-MuiTypography-root"
          href="/"
        >
          Зарегистрироваться
        </a>
        <a
          class="MuiTypography-root MuiTypography-body1 MuiTypography-alignCenter css-1uwgr7b-MuiTypography-root"
          href="/"
        >
          Забыли пароль?
        </a>
        <a
          class="MuiTypography-root MuiTypography-body1 MuiTypography-alignCenter css-1uwgr7b-MuiTypography-root"
          href="/"
        >
          Забыли логин?
        </a>
      </div>
    </div>
  </div>
</div>
`;

exports[`loginerror loginerror 3`] = `
<div>
  <div
    class="sc-pGacB eJiPhE"
  >
    <div
      class="sc-jrAFXE fMryJM"
    >
      <form
        class="sc-dlfnuX doKiIy"
        name="signIn"
      >
        <h6
          class="MuiTypography-root MuiTypography-h6 MuiTypography-alignCenter css-z8xp0u-MuiTypography-root"
        >
          Загрузка...
        </h6>
        <div
          class="MuiGrid-root MuiGrid-container MuiGrid-spacing-xs-[object Object] css-5qpq83-MuiGrid-root"
        >
          <div
            class="css-j86037-MuiStack-root"
          >
            <div
              class="MuiFormControl-root MuiTextField-root css-136h9lv-MuiFormControl-root-MuiTextField-root"
            >
              <label
                class="MuiInputLabel-root MuiInputLabel-formControl MuiInputLabel-animated MuiInputLabel-shrink MuiInputLabel-outlined MuiFormLabel-root MuiFormLabel-colorPrimary MuiFormLabel-filled Mui-required css-1kty9di-MuiFormLabel-root-MuiInputLabel-root"
                data-shrink="true"
                for="loginSignIn"
                id="loginSignIn-label"
              >
                Логин
                <span
                  aria-hidden="true"
                  class="MuiInputLabel-asterisk MuiFormLabel-asterisk css-wgai2y-MuiFormLabel-asterisk"
                >
                   
                  *
                </span>
              </label>
              <div
                class="MuiOutlinedInput-root MuiInputBase-root MuiInputBase-colorPrimary MuiInputBase-formControl css-9ddj71-MuiInputBase-root-MuiOutlinedInput-root"
              >
                <input
                  aria-invalid="false"
                  class="MuiOutlinedInput-input MuiInputBase-input css-1t8l2tu-MuiInputBase-input-MuiOutlinedInput-input"
                  id="loginSignIn"
                  name="login"
                  required=""
                  type="text"
                  value="qwertyu"
                />
                <fieldset
                  aria-hidden="true"
                  class="MuiOutlinedInput-notchedOutline css-1d3z3hw-MuiOutlinedInput-notchedOutline"
                >
                  <legend
                    class="css-186xcr5"
                  >
                    <span>
                      Логин
                       *
                    </span>
                  </legend>
                </fieldset>
              </div>
            </div>
            <div
              class="MuiFormControl-root MuiTextField-root css-136h9lv-MuiFormControl-root-MuiTextField-root"
            >
              <label
                class="MuiInputLabel-root MuiInputLabel-formControl MuiInputLabel-animated MuiInputLabel-shrink MuiInputLabel-outlined MuiFormLabel-root MuiFormLabel-colorPrimary MuiFormLabel-filled Mui-required css-1kty9di-MuiFormLabel-root-MuiInputLabel-root"
                data-shrink="true"
                for="passwordSignIn"
                id="passwordSignIn-label"
              >
                Введите пароль
                <span
                  aria-hidden="true"
                  class="MuiInputLabel-asterisk MuiFormLabel-asterisk css-wgai2y-MuiFormLabel-asterisk"
                >
                   
                  *
                </span>
              </label>
              <div
                class="MuiOutlinedInput-root MuiInputBase-root MuiInputBase-colorPrimary MuiInputBase-formControl css-9ddj71-MuiInputBase-root-MuiOutlinedInput-root"
              >
                <input
                  aria-invalid="false"
                  class="MuiOutlinedInput-input MuiInputBase-input css-1t8l2tu-MuiInputBase-input-MuiOutlinedInput-input"
                  id="passwordSignIn"
                  name="password"
                  required=""
                  type="password"
                  value="Qwerty-11"
                />
                <fieldset
                  aria-hidden="true"
                  class="MuiOutlinedInput-notchedOutline css-1d3z3hw-MuiOutlinedInput-notchedOutline"
                >
                  <legend
                    class="css-186xcr5"
                  >
                    <span>
                      Введите пароль
                       *
                    </span>
                  </legend>
                </fieldset>
              </div>
            </div>
            <div
              class="MuiGrid-root MuiGrid-container MuiGrid-spacing-xs-undefined css-1hybrzf-MuiGrid-root"
            >
              <div
                class="MuiGrid-root css-1rbomey-MuiGrid-root"
              >
                <button
                  class="MuiButton-root MuiButton-contained MuiButton-containedPrimary MuiButton-sizeMedium MuiButton-containedSizeMedium MuiButtonBase-root Mui-disabled css-sghohy-MuiButtonBase-root-MuiButton-root"
                  disabled=""
                  tabindex="-1"
                  type="submit"
                >
                  Авторизироваться
                </button>
              </div>
              <div
                class="MuiGrid-root css-1rbomey-MuiGrid-root"
              >
                <a
                  class="MuiButton-root MuiButton-contained MuiButton-containedPrimary MuiButton-sizeMedium MuiButton-containedSizeMedium MuiButtonBase-root css-sghohy-MuiButtonBase-root-MuiButton-root"
                  href="/car.wash/main"
                  tabindex="0"
                >
                  Отмена
                  <span
                    class="MuiTouchRipple-root css-8je8zh-MuiTouchRipple-root"
                  />
                </a>
              </div>
            </div>
          </div>
        </div>
      </form>
      <div
        class="MuiGrid-root MuiGrid-container MuiGrid-spacing-xs-undefined MuiGrid-direction-xs-column css-6gh8l0-MuiGrid-root"
      >
        <a
          class="MuiTypography-root MuiTypography-body1 MuiTypography-alignCenter css-1uwgr7b-MuiTypography-root"
          href="/"
        >
          Зарегистрироваться
        </a>
        <a
          class="MuiTypography-root MuiTypography-body1 MuiTypography-alignCenter css-1uwgr7b-MuiTypography-root"
          href="/"
        >
          Забыли пароль?
        </a>
        <a
          class="MuiTypography-root MuiTypography-body1 MuiTypography-alignCenter css-1uwgr7b-MuiTypography-root"
          href="/"
        >
          Забыли логин?
        </a>
      </div>
    </div>
  </div>
</div>
`;

exports[`loginerror loginerror 4`] = `
<div>
  <div
    class="sc-pGacB eJiPhE"
  >
    <div
      class="sc-jrAFXE fMryJM"
    >
      <form
        class="sc-dlfnuX doKiIy"
        name="signIn"
      >
        <h6
          class="MuiTypography-root MuiTypography-h6 MuiTypography-alignCenter css-z8xp0u-MuiTypography-root"
        >
          Неверный логин или пароль
        </h6>
        <div
          class="MuiGrid-root MuiGrid-container MuiGrid-spacing-xs-[object Object] css-5qpq83-MuiGrid-root"
        >
          <div
            class="css-j86037-MuiStack-root"
          >
            <div
              class="MuiFormControl-root MuiTextField-root css-136h9lv-MuiFormControl-root-MuiTextField-root"
            >
              <label
                class="MuiInputLabel-root MuiInputLabel-formControl MuiInputLabel-animated MuiInputLabel-shrink MuiInputLabel-outlined MuiFormLabel-root MuiFormLabel-colorPrimary MuiFormLabel-filled Mui-required css-1kty9di-MuiFormLabel-root-MuiInputLabel-root"
                data-shrink="true"
                for="loginSignIn"
                id="loginSignIn-label"
              >
                Логин
                <span
                  aria-hidden="true"
                  class="MuiInputLabel-asterisk MuiFormLabel-asterisk css-wgai2y-MuiFormLabel-asterisk"
                >
                   
                  *
                </span>
              </label>
              <div
                class="MuiOutlinedInput-root MuiInputBase-root MuiInputBase-colorPrimary MuiInputBase-formControl css-9ddj71-MuiInputBase-root-MuiOutlinedInput-root"
              >
                <input
                  aria-invalid="false"
                  class="MuiOutlinedInput-input MuiInputBase-input css-1t8l2tu-MuiInputBase-input-MuiOutlinedInput-input"
                  id="loginSignIn"
                  name="login"
                  required=""
                  type="text"
                  value="qwertyu"
                />
                <fieldset
                  aria-hidden="true"
                  class="MuiOutlinedInput-notchedOutline css-1d3z3hw-MuiOutlinedInput-notchedOutline"
                >
                  <legend
                    class="css-186xcr5"
                  >
                    <span>
                      Логин
                       *
                    </span>
                  </legend>
                </fieldset>
              </div>
            </div>
            <div
              class="MuiFormControl-root MuiTextField-root css-136h9lv-MuiFormControl-root-MuiTextField-root"
            >
              <label
                class="MuiInputLabel-root MuiInputLabel-formControl MuiInputLabel-animated MuiInputLabel-shrink MuiInputLabel-outlined MuiFormLabel-root MuiFormLabel-colorPrimary MuiFormLabel-filled Mui-required css-1kty9di-MuiFormLabel-root-MuiInputLabel-root"
                data-shrink="true"
                for="passwordSignIn"
                id="passwordSignIn-label"
              >
                Введите пароль
                <span
                  aria-hidden="true"
                  class="MuiInputLabel-asterisk MuiFormLabel-asterisk css-wgai2y-MuiFormLabel-asterisk"
                >
                   
                  *
                </span>
              </label>
              <div
                class="MuiOutlinedInput-root MuiInputBase-root MuiInputBase-colorPrimary MuiInputBase-formControl css-9ddj71-MuiInputBase-root-MuiOutlinedInput-root"
              >
                <input
                  aria-invalid="false"
                  class="MuiOutlinedInput-input MuiInputBase-input css-1t8l2tu-MuiInputBase-input-MuiOutlinedInput-input"
                  id="passwordSignIn"
                  name="password"
                  required=""
                  type="password"
                  value="Qwerty-11"
                />
                <fieldset
                  aria-hidden="true"
                  class="MuiOutlinedInput-notchedOutline css-1d3z3hw-MuiOutlinedInput-notchedOutline"
                >
                  <legend
                    class="css-186xcr5"
                  >
                    <span>
                      Введите пароль
                       *
                    </span>
                  </legend>
                </fieldset>
              </div>
            </div>
            <div
              class="MuiGrid-root MuiGrid-container MuiGrid-spacing-xs-undefined css-1hybrzf-MuiGrid-root"
            >
              <div
                class="MuiGrid-root css-1rbomey-MuiGrid-root"
              >
                <button
                  class="MuiButton-root MuiButton-contained MuiButton-containedPrimary MuiButton-sizeMedium MuiButton-containedSizeMedium MuiButtonBase-root css-sghohy-MuiButtonBase-root-MuiButton-root"
                  tabindex="0"
                  type="submit"
                >
                  Авторизироваться
                  <span
                    class="MuiTouchRipple-root css-8je8zh-MuiTouchRipple-root"
                  />
                </button>
              </div>
              <div
                class="MuiGrid-root css-1rbomey-MuiGrid-root"
              >
                <a
                  class="MuiButton-root MuiButton-contained MuiButton-containedPrimary MuiButton-sizeMedium MuiButton-containedSizeMedium MuiButtonBase-root css-sghohy-MuiButtonBase-root-MuiButton-root"
                  href="/car.wash/main"
                  tabindex="0"
                >
                  Отмена
                  <span
                    class="MuiTouchRipple-root css-8je8zh-MuiTouchRipple-root"
                  />
                </a>
              </div>
            </div>
          </div>
        </div>
      </form>
      <div
        class="MuiGrid-root MuiGrid-container MuiGrid-spacing-xs-undefined MuiGrid-direction-xs-column css-6gh8l0-MuiGrid-root"
      >
        <a
          class="MuiTypography-root MuiTypography-body1 MuiTypography-alignCenter css-1uwgr7b-MuiTypography-root"
          href="/"
        >
          Зарегистрироваться
        </a>
        <a
          class="MuiTypography-root MuiTypography-body1 MuiTypography-alignCenter css-1uwgr7b-MuiTypography-root"
          href="/"
        >
          Забыли пароль?
        </a>
        <a
          class="MuiTypography-root MuiTypography-body1 MuiTypography-alignCenter css-1uwgr7b-MuiTypography-root"
          href="/"
        >
          Забыли логин?
        </a>
      </div>
    </div>
  </div>
</div>
`;
