// Jest Snapshot v1, https://goo.gl/fbAQLP

exports[`main checkRender 1`] = `
<div>
  <div
    class="css-1e2fy0l"
  >
    <div
      class="MuiGrid-root css-132bxu1-MuiGrid-root"
    >
      <h2
        class="MuiTypography-root MuiTypography-h2 MuiTypography-alignCenter css-d833kb-MuiTypography-root"
      >
        text
        <div
          class="css-1pf1ysy"
        >
           Car.Wash
        </div>
      </h2>
    </div>
    <div
      class="sc-hKgJUU lgDBkb"
    >
      <h4
        class="MuiTypography-root MuiTypography-h4 css-5lbw0b-MuiTypography-root"
      >
        Loading...
      </h4>
    </div>
    <div
      class="css-1n6quxi"
    >
      <button
        class="MuiButton-root MuiButton-contained MuiButton-containedError MuiButton-sizeMedium MuiButton-containedSizeMedium MuiButtonBase-root css-1sszw6i-MuiButtonBase-root-MuiButton-root"
        tabindex="0"
        type="button"
      >
         
        text
        <span
          class="MuiTouchRipple-root css-8je8zh-MuiTouchRipple-root"
        />
      </button>
    </div>
    <div
      class="sc-fubCzh ekRCbc"
    >
      <div
        class="MuiPaper-root MuiPaper-elevation MuiPaper-rounded MuiPaper-elevation1 MuiCard-root css-1syf4pq-MuiPaper-root-MuiCard-root"
      >
        <div>
          111
        </div>
        <div
          class="MuiCardContent-root css-46bh2p-MuiCardContent-root"
        >
          <div
            class="MuiTypography-root MuiTypography-h5 MuiTypography-gutterBottom css-h93ljk-MuiTypography-root"
          >
            text
          </div>
          <p
            class="MuiTypography-root MuiTypography-body2 css-r40f8v-MuiTypography-root"
          >
            text
          </p>
        </div>
        <div
          class="MuiCardActions-root MuiCardActions-spacing css-1t6e9jv-MuiCardActions-root"
        >
          <button
            class="MuiButton-root MuiButton-text MuiButton-textPrimary MuiButton-sizeSmall MuiButton-textSizeSmall MuiButtonBase-root css-1knaqv7-MuiButtonBase-root-MuiButton-root"
            tabindex="0"
            type="button"
          >
            text
            <span
              class="MuiTouchRipple-root css-8je8zh-MuiTouchRipple-root"
            />
          </button>
        </div>
      </div>
         
      <div
        class="MuiPaper-root MuiPaper-elevation MuiPaper-rounded MuiPaper-elevation1 MuiCard-root css-1ri6ub7-MuiPaper-root-MuiCard-root"
      >
        <div>
          111
        </div>
        <div
          class="MuiCardContent-root css-46bh2p-MuiCardContent-root"
        >
          <div
            class="MuiTypography-root MuiTypography-h5 MuiTypography-gutterBottom css-h93ljk-MuiTypography-root"
          >
            text
            <a>
              Car.Wash
            </a>
          </div>
          <p
            class="MuiTypography-root MuiTypography-body2 css-r40f8v-MuiTypography-root"
          >
            text
          </p>
        </div>
        <div
          class="MuiCardActions-root MuiCardActions-spacing css-1t6e9jv-MuiCardActions-root"
        >
          <button
            class="MuiButton-root MuiButton-text MuiButton-textPrimary MuiButton-sizeSmall MuiButton-textSizeSmall MuiButtonBase-root css-1knaqv7-MuiButtonBase-root-MuiButton-root"
            tabindex="0"
            type="button"
          >
            text
            <span
              class="MuiTouchRipple-root css-8je8zh-MuiTouchRipple-root"
            />
          </button>
        </div>
      </div>
    </div>
    <h2
      class="MuiTypography-root MuiTypography-h2 MuiTypography-alignCenter css-4j3lqn-MuiTypography-root"
    >
      text
    </h2>
    <div
      class="sc-eCstlR cFRudY"
    >
      <div
        class="sc-jSgvzq kkZsus"
      >
        <div
          class="MuiPaper-root MuiPaper-elevation MuiPaper-elevation2 css-68fehq-MuiPaper-root"
        >
          <h2
            class="MuiTypography-root MuiTypography-h2 MuiTypography-alignCenter css-bwjd1y-MuiTypography-root"
          >
            8
          </h2>
          <p
            class="MuiTypography-root MuiTypography-body1 MuiTypography-alignCenter css-j5vz1s-MuiTypography-root"
          >
            text
          </p>
        </div>
      </div>
      <div
        class="sc-jSgvzq kkZsus"
      >
        <div
          class="MuiPaper-root MuiPaper-elevation MuiPaper-elevation6 css-9z7u3l-MuiPaper-root"
        >
          <h2
            class="MuiTypography-root MuiTypography-h2 MuiTypography-alignCenter css-bwjd1y-MuiTypography-root"
          >
            150 000
          </h2>
          <p
            class="MuiTypography-root MuiTypography-body1 MuiTypography-alignCenter css-j5vz1s-MuiTypography-root"
          >
            text
          </p>
        </div>
      </div>
      <div
        class="sc-jSgvzq kkZsus"
      >
        <div
          class="MuiPaper-root MuiPaper-elevation MuiPaper-elevation10 css-47xwzj-MuiPaper-root"
        >
          <h2
            class="MuiTypography-root MuiTypography-h2 MuiTypography-alignCenter css-bwjd1y-MuiTypography-root"
          >
            1000
          </h2>
          <p
            class="MuiTypography-root MuiTypography-body1 MuiTypography-alignCenter css-j5vz1s-MuiTypography-root"
          >
            text
          </p>
        </div>
      </div>
      <div
        class="sc-jSgvzq kkZsus"
      >
        <div
          class="MuiPaper-root MuiPaper-elevation MuiPaper-elevation10 css-47xwzj-MuiPaper-root"
        >
          <h2
            class="MuiTypography-root MuiTypography-h2 MuiTypography-alignCenter css-bwjd1y-MuiTypography-root"
          >
            300
          </h2>
          <p
            class="MuiTypography-root MuiTypography-body1 MuiTypography-alignCenter css-j5vz1s-MuiTypography-root"
          >
            text
          </p>
        </div>
      </div>
      <div
        class="sc-jSgvzq kkZsus"
      >
        <div
          class="MuiPaper-root MuiPaper-elevation MuiPaper-elevation6 css-9z7u3l-MuiPaper-root"
        >
          <h2
            class="MuiTypography-root MuiTypography-h2 MuiTypography-alignCenter css-bwjd1y-MuiTypography-root"
          >
            12%
          </h2>
          <p
            class="MuiTypography-root MuiTypography-body1 MuiTypography-alignCenter css-j5vz1s-MuiTypography-root"
          >
            text
          </p>
        </div>
      </div>
      <div
        class="sc-jSgvzq kkZsus"
      >
        <div
          class="MuiPaper-root MuiPaper-elevation MuiPaper-elevation2 css-68fehq-MuiPaper-root"
        >
          <h2
            class="MuiTypography-root MuiTypography-h2 MuiTypography-alignCenter css-bwjd1y-MuiTypography-root"
          >
            9000
          </h2>
          <p
            class="MuiTypography-root MuiTypography-body1 MuiTypography-alignCenter css-j5vz1s-MuiTypography-root"
          >
            text
          </p>
        </div>
      </div>
    </div>
    <div
      class="MuiGrid-root MuiGrid-container MuiGrid-spacing-xs-undefined css-1lym95h-MuiGrid-root"
      id="OrderBlock"
    >
      <div>
        <div
          class="sc-kEjbQP bTWPyv"
        >
          <h4
            class="MuiTypography-root MuiTypography-h4 MuiTypography-alignCenter css-1aupgo2-MuiTypography-root"
          >
            text
          </h4>
          <div
            class="MuiFormControl-root MuiFormControl-fullWidth css-q8hpuo-MuiFormControl-root"
          >
            <label
              class="MuiInputLabel-root MuiInputLabel-formControl MuiInputLabel-animated MuiInputLabel-outlined MuiFormLabel-root MuiFormLabel-colorPrimary Mui-required css-14s5rfu-MuiFormLabel-root-MuiInputLabel-root"
              data-shrink="false"
              id="list-names-label"
            >
              text
              <span
                aria-hidden="true"
                class="MuiInputLabel-asterisk MuiFormLabel-asterisk css-wgai2y-MuiFormLabel-asterisk"
              >
                 
                *
              </span>
            </label>
            <div
              class="MuiOutlinedInput-root MuiInputBase-root MuiInputBase-colorPrimary MuiInputBase-formControl MuiSelect-root css-ndfwj9-MuiInputBase-root-MuiOutlinedInput-root"
            >
              <div
                aria-expanded="false"
                aria-haspopup="listbox"
                aria-labelledby="list-names-label-select"
                class="MuiSelect-select MuiSelect-outlined MuiOutlinedInput-input MuiInputBase-input css-11u53oe-MuiSelect-select-MuiInputBase-input-MuiOutlinedInput-input"
                role="button"
                tabindex="0"
              >
                <span
                  class="notranslate"
                >
                  ​
                </span>
              </div>
              <input
                aria-hidden="true"
                class="MuiSelect-nativeInput css-yf8vq0-MuiSelect-nativeInput"
                required=""
                tabindex="-1"
                value=""
              />
              <svg
                aria-hidden="true"
                class="MuiSvgIcon-root MuiSvgIcon-fontSizeMedium MuiSelect-icon MuiSelect-iconOutlined css-hfutr2-MuiSvgIcon-root-MuiSelect-icon"
                data-testid="ArrowDropDownIcon"
                focusable="false"
                viewBox="0 0 24 24"
              >
                <path
                  d="M7 10l5 5 5-5z"
                />
              </svg>
              <fieldset
                aria-hidden="true"
                class="MuiOutlinedInput-notchedOutline css-1d3z3hw-MuiOutlinedInput-notchedOutline"
              >
                <legend
                  class="css-dhh0px"
                >
                  <span>
                    text
                  </span>
                </legend>
              </fieldset>
            </div>
          </div>
          <br />
          <br />
          <div
            class="MuiFormControl-root MuiFormControl-fullWidth css-q8hpuo-MuiFormControl-root"
          >
            <div
              class="css-j86037-MuiStack-root"
            >
              <div
                class="MuiFormControl-root MuiTextField-root css-136h9lv-MuiFormControl-root-MuiTextField-root"
              >
                <label
                  class="MuiInputLabel-root MuiInputLabel-formControl MuiInputLabel-animated MuiInputLabel-outlined MuiFormLabel-root MuiFormLabel-colorPrimary Mui-required css-14s5rfu-MuiFormLabel-root-MuiInputLabel-root"
                  data-shrink="false"
                  for="telephone"
                  id="telephone-label"
                >
                  text
                  <span
                    aria-hidden="true"
                    class="MuiInputLabel-asterisk MuiFormLabel-asterisk css-wgai2y-MuiFormLabel-asterisk"
                  >
                     
                    *
                  </span>
                </label>
                <div
                  class="MuiOutlinedInput-root MuiInputBase-root MuiInputBase-colorPrimary MuiInputBase-formControl css-9ddj71-MuiInputBase-root-MuiOutlinedInput-root"
                >
                  <input
                    aria-invalid="false"
                    class="MuiOutlinedInput-input MuiInputBase-input css-1t8l2tu-MuiInputBase-input-MuiOutlinedInput-input"
                    id="telephone"
                    inputmode="numeric"
                    name="phone"
                    pattern="[0-9]*"
                    required=""
                    type="text"
                    value=""
                  />
                  <fieldset
                    aria-hidden="true"
                    class="MuiOutlinedInput-notchedOutline css-1d3z3hw-MuiOutlinedInput-notchedOutline"
                  >
                    <legend
                      class="css-dhh0px"
                    >
                      <span>
                        text
                         *
                      </span>
                    </legend>
                  </fieldset>
                </div>
              </div>
              <div
                class="MuiFormControl-root MuiTextField-root css-136h9lv-MuiFormControl-root-MuiTextField-root"
              >
                <label
                  class="MuiInputLabel-root MuiInputLabel-formControl MuiInputLabel-animated MuiInputLabel-outlined MuiFormLabel-root MuiFormLabel-colorPrimary css-14s5rfu-MuiFormLabel-root-MuiInputLabel-root"
                  data-shrink="false"
                  for="outlined-multiline-static"
                  id="outlined-multiline-static-label"
                >
                  text
                </label>
                <div
                  class="MuiOutlinedInput-root MuiInputBase-root MuiInputBase-colorPrimary MuiInputBase-formControl MuiInputBase-multiline css-dpjnhs-MuiInputBase-root-MuiOutlinedInput-root"
                >
                  <textarea
                    aria-invalid="false"
                    class="MuiOutlinedInput-input MuiInputBase-input MuiInputBase-inputMultiline css-1sqnrkk-MuiInputBase-input-MuiOutlinedInput-input"
                    id="outlined-multiline-static"
                    rows="6"
                    style="height: 0px; overflow: hidden;"
                  />
                  <textarea
                    aria-hidden="true"
                    class="MuiOutlinedInput-input MuiInputBase-input MuiInputBase-inputMultiline css-1sqnrkk-MuiInputBase-input-MuiOutlinedInput-input"
                    readonly=""
                    style="visibility: hidden; position: absolute; overflow: hidden; height: 0px; top: 0px; left: 0px; transform: translateZ(0); padding: 0px; width: 100%;"
                    tabindex="-1"
                  />
                  <fieldset
                    aria-hidden="true"
                    class="MuiOutlinedInput-notchedOutline css-1d3z3hw-MuiOutlinedInput-notchedOutline"
                  >
                    <legend
                      class="css-dhh0px"
                    >
                      <span>
                        text
                      </span>
                    </legend>
                  </fieldset>
                </div>
              </div>
            </div>
          </div>
          <br />
          <br />
          <div
            class="css-j86037-MuiStack-root"
          >
            <button
              class="MuiButton-root MuiButton-contained MuiButton-containedSuccess MuiButton-sizeMedium MuiButton-containedSizeMedium MuiButtonBase-root Mui-disabled css-ke5b6m-MuiButtonBase-root-MuiButton-root"
              disabled=""
              tabindex="-1"
              type="button"
            >
              text
            </button>
            <a
              class="MuiButton-root MuiButton-text MuiButton-textPrimary MuiButton-sizeMedium MuiButton-textSizeMedium MuiButtonBase-root css-1e6y48t-MuiButtonBase-root-MuiButton-root"
              href="/car.wash/registration"
              tabindex="0"
            >
              text
              <span
                class="MuiTouchRipple-root css-8je8zh-MuiTouchRipple-root"
              />
            </a>
          </div>
        </div>
        <br />
        <br />
      </div>
    </div>
    <h4
      class="MuiTypography-root MuiTypography-h4 MuiTypography-alignCenter css-1y165jv-MuiTypography-root"
    >
      text
    </h4>
    <div
      class="MuiGrid-root MuiGrid-container MuiGrid-spacing-xs-undefined MuiGrid-direction-xs-column css-10fecbf-MuiGrid-root"
    >
      <div
        class="MuiPaper-root MuiPaper-elevation MuiPaper-rounded MuiPaper-elevation1 MuiTableContainer-root css-11xur9t-MuiPaper-root-MuiTableContainer-root"
        style="max-width: 50%;"
      >
        <table
          class="MuiTable-root css-18qqjmd-MuiTable-root"
        >
          <thead
            class="MuiTableHead-root css-15wwp11-MuiTableHead-root"
          >
            <tr
              class="MuiTableRow-root MuiTableRow-head css-1q1u3t4-MuiTableRow-root"
            >
              <th
                class="MuiTableCell-root MuiTableCell-head MuiTableCell-sizeMedium css-1ygcj2i-MuiTableCell-root"
                scope="col"
                style="font-weight: bold; font-size: 18px;"
              >
                text
              </th>
              <th
                class="MuiTableCell-root MuiTableCell-head MuiTableCell-alignRight MuiTableCell-sizeMedium css-1azl6jz-MuiTableCell-root"
                scope="col"
                style="font-weight: bold; font-size: 18px;"
              >
                text
                , ₽
              </th>
            </tr>
          </thead>
          <tbody
            class="MuiTableBody-root css-apqrd9-MuiTableBody-root"
          >
            <tr
              class="MuiTableRow-root css-1q1u3t4-MuiTableRow-root"
            >
              <th
                class="MuiTableCell-root MuiTableCell-body MuiTableCell-sizeMedium css-1ex1afd-MuiTableCell-root"
                scope="row"
              >
                TOUCHLESS CAR WASH
              </th>
              <td
                class="MuiTableCell-root MuiTableCell-body MuiTableCell-alignRight MuiTableCell-sizeMedium css-177gid-MuiTableCell-root"
              >
                459
              </td>
            </tr>
            <tr
              class="MuiTableRow-root css-1q1u3t4-MuiTableRow-root"
            >
              <th
                class="MuiTableCell-root MuiTableCell-body MuiTableCell-sizeMedium css-1ex1afd-MuiTableCell-root"
                scope="row"
              >
                NANO WASHING
              </th>
              <td
                class="MuiTableCell-root MuiTableCell-body MuiTableCell-alignRight MuiTableCell-sizeMedium css-177gid-MuiTableCell-root"
              >
                759
              </td>
            </tr>
            <tr
              class="MuiTableRow-root css-1q1u3t4-MuiTableRow-root"
            >
              <th
                class="MuiTableCell-root MuiTableCell-body MuiTableCell-sizeMedium css-1ex1afd-MuiTableCell-root"
                scope="row"
              >
                LUXURY WASHING SINKS
              </th>
              <td
                class="MuiTableCell-root MuiTableCell-body MuiTableCell-alignRight MuiTableCell-sizeMedium css-177gid-MuiTableCell-root"
              >
                1559
              </td>
            </tr>
            <tr
              class="MuiTableRow-root css-1q1u3t4-MuiTableRow-root"
            >
              <th
                class="MuiTableCell-root MuiTableCell-body MuiTableCell-sizeMedium css-1ex1afd-MuiTableCell-root"
                scope="row"
              >
                COMPLETE WASHING
              </th>
              <td
                class="MuiTableCell-root MuiTableCell-body MuiTableCell-alignRight MuiTableCell-sizeMedium css-177gid-MuiTableCell-root"
              >
                859
              </td>
            </tr>
            <tr
              class="MuiTableRow-root css-1q1u3t4-MuiTableRow-root"
            >
              <th
                class="MuiTableCell-root MuiTableCell-body MuiTableCell-sizeMedium css-1ex1afd-MuiTableCell-root"
                scope="row"
              >
                HOLISTIC NANO-WASH
              </th>
              <td
                class="MuiTableCell-root MuiTableCell-body MuiTableCell-alignRight MuiTableCell-sizeMedium css-177gid-MuiTableCell-root"
              >
                1159
              </td>
            </tr>
            <tr
              class="MuiTableRow-root css-1q1u3t4-MuiTableRow-root"
            >
              <th
                class="MuiTableCell-root MuiTableCell-body MuiTableCell-sizeMedium css-1ex1afd-MuiTableCell-root"
                scope="row"
              >
                ANTIREAGENT
              </th>
              <td
                class="MuiTableCell-root MuiTableCell-body MuiTableCell-alignRight MuiTableCell-sizeMedium css-177gid-MuiTableCell-root"
              >
                1400
              </td>
            </tr>
            <tr
              class="MuiTableRow-root css-1q1u3t4-MuiTableRow-root"
            >
              <th
                class="MuiTableCell-root MuiTableCell-body MuiTableCell-sizeMedium css-1ex1afd-MuiTableCell-root"
                scope="row"
              >
                ANTIREAGENT COMPLEX
              </th>
              <td
                class="MuiTableCell-root MuiTableCell-body MuiTableCell-alignRight MuiTableCell-sizeMedium css-177gid-MuiTableCell-root"
              >
                1800
              </td>
            </tr>
            <tr
              class="MuiTableRow-root css-1q1u3t4-MuiTableRow-root"
            >
              <th
                class="MuiTableCell-root MuiTableCell-body MuiTableCell-sizeMedium css-1ex1afd-MuiTableCell-root"
                scope="row"
              >
                EXPRESS WASHING
              </th>
              <td
                class="MuiTableCell-root MuiTableCell-body MuiTableCell-alignRight MuiTableCell-sizeMedium css-177gid-MuiTableCell-root"
              >
                149
              </td>
            </tr>
            <tr
              class="MuiTableRow-root css-1q1u3t4-MuiTableRow-root"
            >
              <th
                class="MuiTableCell-root MuiTableCell-body MuiTableCell-sizeMedium css-1ex1afd-MuiTableCell-root"
                scope="row"
              >
                PURPLE
              </th>
              <td
                class="MuiTableCell-root MuiTableCell-body MuiTableCell-alignRight MuiTableCell-sizeMedium css-177gid-MuiTableCell-root"
              >
                250
              </td>
            </tr>
            <tr
              class="MuiTableRow-root css-1q1u3t4-MuiTableRow-root"
            >
              <th
                class="MuiTableCell-root MuiTableCell-body MuiTableCell-sizeMedium css-1ex1afd-MuiTableCell-root"
                scope="row"
              >
                GLASS
              </th>
              <td
                class="MuiTableCell-root MuiTableCell-body MuiTableCell-alignRight MuiTableCell-sizeMedium css-177gid-MuiTableCell-root"
              >
                150
              </td>
            </tr>
            <tr
              class="MuiTableRow-root css-1q1u3t4-MuiTableRow-root"
            >
              <th
                class="MuiTableCell-root MuiTableCell-body MuiTableCell-sizeMedium css-1ex1afd-MuiTableCell-root"
                scope="row"
              >
                PLASTIC POLISH
              </th>
              <td
                class="MuiTableCell-root MuiTableCell-body MuiTableCell-alignRight MuiTableCell-sizeMedium css-177gid-MuiTableCell-root"
              >
                159
              </td>
            </tr>
          </tbody>
        </table>
      </div>
    </div>
  </div>
</div>
`;

exports[`main checkRender 2`] = `
<div>
  <div
    class="css-1e2fy0l"
  >
    <div
      class="MuiGrid-root css-132bxu1-MuiGrid-root"
    >
      <h2
        class="MuiTypography-root MuiTypography-h2 MuiTypography-alignCenter css-d833kb-MuiTypography-root"
      >
        text
        <div
          class="css-1pf1ysy"
        >
           Car.Wash
        </div>
      </h2>
    </div>
    <div
      class="sc-hKgJUU lgDBkb"
    >
      <div
        class="react-3d-carousel"
        style="height: 0px;"
      >
        <div
          class="slider-container"
        >
          <div
            class="slider-content"
          >
            <div
              class="slider-single proactivede"
            >
              <div
                class="slider-left"
              >
                <div>
                  <i
                    class="fa fa-arrow-left"
                  />
                </div>
              </div>
              <div
                class="slider-right"
              >
                <div>
                  <i
                    class="fa fa-arrow-right"
                  />
                </div>
              </div>
              <div
                class="slider-single-content"
              >
                <div
                  class="sc-dlfnuX hDnJaZ"
                >
                  <img
                    alt="1"
                    class="sc-bdfBQB cCOmx"
                    src="remote-assets/main/carousel/first-slide.jpg"
                  />
                  <h5
                    class="MuiTypography-root MuiTypography-h5 css-ag7rrr-MuiTypography-root"
                  >
                    <div
                      class="sc-gsTEea ixsJl"
                      color="yellow"
                    >
                      Быстрое и качественное обслуживание
                    </div>
                  </h5>
                </div>
              </div>
            </div>
          </div>
        </div>
      </div>
    </div>
    <div
      class="css-1n6quxi"
    >
      <button
        class="MuiButton-root MuiButton-contained MuiButton-containedError MuiButton-sizeMedium MuiButton-containedSizeMedium MuiButtonBase-root css-1sszw6i-MuiButtonBase-root-MuiButton-root"
        tabindex="0"
        type="button"
      >
         
        text
        <span
          class="MuiTouchRipple-root css-8je8zh-MuiTouchRipple-root"
        />
      </button>
    </div>
    <div
      class="sc-fubCzh ekRCbc"
    >
      <div
        class="MuiPaper-root MuiPaper-elevation MuiPaper-rounded MuiPaper-elevation1 MuiCard-root css-1syf4pq-MuiPaper-root-MuiCard-root"
      >
        <div>
          111
        </div>
        <div
          class="MuiCardContent-root css-46bh2p-MuiCardContent-root"
        >
          <div
            class="MuiTypography-root MuiTypography-h5 MuiTypography-gutterBottom css-h93ljk-MuiTypography-root"
          >
            text
          </div>
          <p
            class="MuiTypography-root MuiTypography-body2 css-r40f8v-MuiTypography-root"
          >
            text
          </p>
        </div>
        <div
          class="MuiCardActions-root MuiCardActions-spacing css-1t6e9jv-MuiCardActions-root"
        >
          <button
            class="MuiButton-root MuiButton-text MuiButton-textPrimary MuiButton-sizeSmall MuiButton-textSizeSmall MuiButtonBase-root css-1knaqv7-MuiButtonBase-root-MuiButton-root"
            tabindex="0"
            type="button"
          >
            text
            <span
              class="MuiTouchRipple-root css-8je8zh-MuiTouchRipple-root"
            />
          </button>
        </div>
      </div>
         
      <div
        class="MuiPaper-root MuiPaper-elevation MuiPaper-rounded MuiPaper-elevation1 MuiCard-root css-1ri6ub7-MuiPaper-root-MuiCard-root"
      >
        <div>
          111
        </div>
        <div
          class="MuiCardContent-root css-46bh2p-MuiCardContent-root"
        >
          <div
            class="MuiTypography-root MuiTypography-h5 MuiTypography-gutterBottom css-h93ljk-MuiTypography-root"
          >
            text
            <a>
              Car.Wash
            </a>
          </div>
          <p
            class="MuiTypography-root MuiTypography-body2 css-r40f8v-MuiTypography-root"
          >
            text
          </p>
        </div>
        <div
          class="MuiCardActions-root MuiCardActions-spacing css-1t6e9jv-MuiCardActions-root"
        >
          <button
            class="MuiButton-root MuiButton-text MuiButton-textPrimary MuiButton-sizeSmall MuiButton-textSizeSmall MuiButtonBase-root css-1knaqv7-MuiButtonBase-root-MuiButton-root"
            tabindex="0"
            type="button"
          >
            text
            <span
              class="MuiTouchRipple-root css-8je8zh-MuiTouchRipple-root"
            />
          </button>
        </div>
      </div>
    </div>
    <h2
      class="MuiTypography-root MuiTypography-h2 MuiTypography-alignCenter css-4j3lqn-MuiTypography-root"
    >
      text
    </h2>
    <div
      class="sc-eCstlR cFRudY"
    >
      <div
        class="sc-jSgvzq kkZsus"
      >
        <div
          class="MuiPaper-root MuiPaper-elevation MuiPaper-elevation2 css-68fehq-MuiPaper-root"
        >
          <h2
            class="MuiTypography-root MuiTypography-h2 MuiTypography-alignCenter css-bwjd1y-MuiTypography-root"
          >
            8
          </h2>
          <p
            class="MuiTypography-root MuiTypography-body1 MuiTypography-alignCenter css-j5vz1s-MuiTypography-root"
          >
            text
          </p>
        </div>
      </div>
      <div
        class="sc-jSgvzq kkZsus"
      >
        <div
          class="MuiPaper-root MuiPaper-elevation MuiPaper-elevation6 css-9z7u3l-MuiPaper-root"
        >
          <h2
            class="MuiTypography-root MuiTypography-h2 MuiTypography-alignCenter css-bwjd1y-MuiTypography-root"
          >
            150 000
          </h2>
          <p
            class="MuiTypography-root MuiTypography-body1 MuiTypography-alignCenter css-j5vz1s-MuiTypography-root"
          >
            text
          </p>
        </div>
      </div>
      <div
        class="sc-jSgvzq kkZsus"
      >
        <div
          class="MuiPaper-root MuiPaper-elevation MuiPaper-elevation10 css-47xwzj-MuiPaper-root"
        >
          <h2
            class="MuiTypography-root MuiTypography-h2 MuiTypography-alignCenter css-bwjd1y-MuiTypography-root"
          >
            1000
          </h2>
          <p
            class="MuiTypography-root MuiTypography-body1 MuiTypography-alignCenter css-j5vz1s-MuiTypography-root"
          >
            text
          </p>
        </div>
      </div>
      <div
        class="sc-jSgvzq kkZsus"
      >
        <div
          class="MuiPaper-root MuiPaper-elevation MuiPaper-elevation10 css-47xwzj-MuiPaper-root"
        >
          <h2
            class="MuiTypography-root MuiTypography-h2 MuiTypography-alignCenter css-bwjd1y-MuiTypography-root"
          >
            300
          </h2>
          <p
            class="MuiTypography-root MuiTypography-body1 MuiTypography-alignCenter css-j5vz1s-MuiTypography-root"
          >
            text
          </p>
        </div>
      </div>
      <div
        class="sc-jSgvzq kkZsus"
      >
        <div
          class="MuiPaper-root MuiPaper-elevation MuiPaper-elevation6 css-9z7u3l-MuiPaper-root"
        >
          <h2
            class="MuiTypography-root MuiTypography-h2 MuiTypography-alignCenter css-bwjd1y-MuiTypography-root"
          >
            12%
          </h2>
          <p
            class="MuiTypography-root MuiTypography-body1 MuiTypography-alignCenter css-j5vz1s-MuiTypography-root"
          >
            text
          </p>
        </div>
      </div>
      <div
        class="sc-jSgvzq kkZsus"
      >
        <div
          class="MuiPaper-root MuiPaper-elevation MuiPaper-elevation2 css-68fehq-MuiPaper-root"
        >
          <h2
            class="MuiTypography-root MuiTypography-h2 MuiTypography-alignCenter css-bwjd1y-MuiTypography-root"
          >
            9000
          </h2>
          <p
            class="MuiTypography-root MuiTypography-body1 MuiTypography-alignCenter css-j5vz1s-MuiTypography-root"
          >
            text
          </p>
        </div>
      </div>
    </div>
    <div
      class="MuiGrid-root MuiGrid-container MuiGrid-spacing-xs-undefined css-1lym95h-MuiGrid-root"
      id="OrderBlock"
    >
      <div>
        <div
          class="sc-kEjbQP bTWPyv"
        >
          <h4
            class="MuiTypography-root MuiTypography-h4 MuiTypography-alignCenter css-1aupgo2-MuiTypography-root"
          >
            text
          </h4>
          <div
            class="MuiFormControl-root MuiFormControl-fullWidth css-q8hpuo-MuiFormControl-root"
          >
            <label
              class="MuiInputLabel-root MuiInputLabel-formControl MuiInputLabel-animated MuiInputLabel-outlined MuiFormLabel-root MuiFormLabel-colorPrimary Mui-required css-14s5rfu-MuiFormLabel-root-MuiInputLabel-root"
              data-shrink="false"
              id="list-names-label"
            >
              text
              <span
                aria-hidden="true"
                class="MuiInputLabel-asterisk MuiFormLabel-asterisk css-wgai2y-MuiFormLabel-asterisk"
              >
                 
                *
              </span>
            </label>
            <div
              class="MuiOutlinedInput-root MuiInputBase-root MuiInputBase-colorPrimary MuiInputBase-formControl MuiSelect-root css-ndfwj9-MuiInputBase-root-MuiOutlinedInput-root"
            >
              <div
                aria-expanded="false"
                aria-haspopup="listbox"
                aria-labelledby="list-names-label-select"
                class="MuiSelect-select MuiSelect-outlined MuiOutlinedInput-input MuiInputBase-input css-11u53oe-MuiSelect-select-MuiInputBase-input-MuiOutlinedInput-input"
                role="button"
                tabindex="0"
              >
                <span
                  class="notranslate"
                >
                  ​
                </span>
              </div>
              <input
                aria-hidden="true"
                class="MuiSelect-nativeInput css-yf8vq0-MuiSelect-nativeInput"
                required=""
                tabindex="-1"
                value=""
              />
              <svg
                aria-hidden="true"
                class="MuiSvgIcon-root MuiSvgIcon-fontSizeMedium MuiSelect-icon MuiSelect-iconOutlined css-hfutr2-MuiSvgIcon-root-MuiSelect-icon"
                data-testid="ArrowDropDownIcon"
                focusable="false"
                viewBox="0 0 24 24"
              >
                <path
                  d="M7 10l5 5 5-5z"
                />
              </svg>
              <fieldset
                aria-hidden="true"
                class="MuiOutlinedInput-notchedOutline css-1d3z3hw-MuiOutlinedInput-notchedOutline"
              >
                <legend
                  class="css-dhh0px"
                >
                  <span>
                    text
                  </span>
                </legend>
              </fieldset>
            </div>
          </div>
          <br />
          <br />
          <div
            class="MuiFormControl-root MuiFormControl-fullWidth css-q8hpuo-MuiFormControl-root"
          >
            <div
              class="css-j86037-MuiStack-root"
            >
              <div
                class="MuiFormControl-root MuiTextField-root css-136h9lv-MuiFormControl-root-MuiTextField-root"
              >
                <label
                  class="MuiInputLabel-root MuiInputLabel-formControl MuiInputLabel-animated MuiInputLabel-outlined MuiFormLabel-root MuiFormLabel-colorPrimary Mui-required css-14s5rfu-MuiFormLabel-root-MuiInputLabel-root"
                  data-shrink="false"
                  for="telephone"
                  id="telephone-label"
                >
                  text
                  <span
                    aria-hidden="true"
                    class="MuiInputLabel-asterisk MuiFormLabel-asterisk css-wgai2y-MuiFormLabel-asterisk"
                  >
                     
                    *
                  </span>
                </label>
                <div
                  class="MuiOutlinedInput-root MuiInputBase-root MuiInputBase-colorPrimary MuiInputBase-formControl css-9ddj71-MuiInputBase-root-MuiOutlinedInput-root"
                >
                  <input
                    aria-invalid="false"
                    class="MuiOutlinedInput-input MuiInputBase-input css-1t8l2tu-MuiInputBase-input-MuiOutlinedInput-input"
                    id="telephone"
                    inputmode="numeric"
                    name="phone"
                    pattern="[0-9]*"
                    required=""
                    type="text"
                    value=""
                  />
                  <fieldset
                    aria-hidden="true"
                    class="MuiOutlinedInput-notchedOutline css-1d3z3hw-MuiOutlinedInput-notchedOutline"
                  >
                    <legend
                      class="css-dhh0px"
                    >
                      <span>
                        text
                         *
                      </span>
                    </legend>
                  </fieldset>
                </div>
              </div>
              <div
                class="MuiFormControl-root MuiTextField-root css-136h9lv-MuiFormControl-root-MuiTextField-root"
              >
                <label
                  class="MuiInputLabel-root MuiInputLabel-formControl MuiInputLabel-animated MuiInputLabel-outlined MuiFormLabel-root MuiFormLabel-colorPrimary css-14s5rfu-MuiFormLabel-root-MuiInputLabel-root"
                  data-shrink="false"
                  for="outlined-multiline-static"
                  id="outlined-multiline-static-label"
                >
                  text
                </label>
                <div
                  class="MuiOutlinedInput-root MuiInputBase-root MuiInputBase-colorPrimary MuiInputBase-formControl MuiInputBase-multiline css-dpjnhs-MuiInputBase-root-MuiOutlinedInput-root"
                >
                  <textarea
                    aria-invalid="false"
                    class="MuiOutlinedInput-input MuiInputBase-input MuiInputBase-inputMultiline css-1sqnrkk-MuiInputBase-input-MuiOutlinedInput-input"
                    id="outlined-multiline-static"
                    rows="6"
                    style="height: 0px; overflow: hidden;"
                  />
                  <textarea
                    aria-hidden="true"
                    class="MuiOutlinedInput-input MuiInputBase-input MuiInputBase-inputMultiline css-1sqnrkk-MuiInputBase-input-MuiOutlinedInput-input"
                    readonly=""
                    style="visibility: hidden; position: absolute; overflow: hidden; height: 0px; top: 0px; left: 0px; transform: translateZ(0); padding: 0px; width: 100%;"
                    tabindex="-1"
                  />
                  <fieldset
                    aria-hidden="true"
                    class="MuiOutlinedInput-notchedOutline css-1d3z3hw-MuiOutlinedInput-notchedOutline"
                  >
                    <legend
                      class="css-dhh0px"
                    >
                      <span>
                        text
                      </span>
                    </legend>
                  </fieldset>
                </div>
              </div>
            </div>
          </div>
          <br />
          <br />
          <div
            class="css-j86037-MuiStack-root"
          >
            <button
              class="MuiButton-root MuiButton-contained MuiButton-containedSuccess MuiButton-sizeMedium MuiButton-containedSizeMedium MuiButtonBase-root Mui-disabled css-ke5b6m-MuiButtonBase-root-MuiButton-root"
              disabled=""
              tabindex="-1"
              type="button"
            >
              text
            </button>
            <a
              class="MuiButton-root MuiButton-text MuiButton-textPrimary MuiButton-sizeMedium MuiButton-textSizeMedium MuiButtonBase-root css-1e6y48t-MuiButtonBase-root-MuiButton-root"
              href="/car.wash/registration"
              tabindex="0"
            >
              text
              <span
                class="MuiTouchRipple-root css-8je8zh-MuiTouchRipple-root"
              />
            </a>
          </div>
        </div>
        <br />
        <br />
      </div>
    </div>
    <h4
      class="MuiTypography-root MuiTypography-h4 MuiTypography-alignCenter css-1y165jv-MuiTypography-root"
    >
      text
    </h4>
    <div
      class="MuiGrid-root MuiGrid-container MuiGrid-spacing-xs-undefined MuiGrid-direction-xs-column css-10fecbf-MuiGrid-root"
    >
      <div
        class="MuiPaper-root MuiPaper-elevation MuiPaper-rounded MuiPaper-elevation1 MuiTableContainer-root css-11xur9t-MuiPaper-root-MuiTableContainer-root"
        style="max-width: 50%;"
      >
        <table
          class="MuiTable-root css-18qqjmd-MuiTable-root"
        >
          <thead
            class="MuiTableHead-root css-15wwp11-MuiTableHead-root"
          >
            <tr
              class="MuiTableRow-root MuiTableRow-head css-1q1u3t4-MuiTableRow-root"
            >
              <th
                class="MuiTableCell-root MuiTableCell-head MuiTableCell-sizeMedium css-1ygcj2i-MuiTableCell-root"
                scope="col"
                style="font-weight: bold; font-size: 18px;"
              >
                text
              </th>
              <th
                class="MuiTableCell-root MuiTableCell-head MuiTableCell-alignRight MuiTableCell-sizeMedium css-1azl6jz-MuiTableCell-root"
                scope="col"
                style="font-weight: bold; font-size: 18px;"
              >
                text
                , ₽
              </th>
            </tr>
          </thead>
          <tbody
            class="MuiTableBody-root css-apqrd9-MuiTableBody-root"
          >
            <tr
              class="MuiTableRow-root css-1q1u3t4-MuiTableRow-root"
            >
              <th
                class="MuiTableCell-root MuiTableCell-body MuiTableCell-sizeMedium css-1ex1afd-MuiTableCell-root"
                scope="row"
              >
                TOUCHLESS CAR WASH
              </th>
              <td
                class="MuiTableCell-root MuiTableCell-body MuiTableCell-alignRight MuiTableCell-sizeMedium css-177gid-MuiTableCell-root"
              >
                459
              </td>
            </tr>
            <tr
              class="MuiTableRow-root css-1q1u3t4-MuiTableRow-root"
            >
              <th
                class="MuiTableCell-root MuiTableCell-body MuiTableCell-sizeMedium css-1ex1afd-MuiTableCell-root"
                scope="row"
              >
                NANO WASHING
              </th>
              <td
                class="MuiTableCell-root MuiTableCell-body MuiTableCell-alignRight MuiTableCell-sizeMedium css-177gid-MuiTableCell-root"
              >
                759
              </td>
            </tr>
            <tr
              class="MuiTableRow-root css-1q1u3t4-MuiTableRow-root"
            >
              <th
                class="MuiTableCell-root MuiTableCell-body MuiTableCell-sizeMedium css-1ex1afd-MuiTableCell-root"
                scope="row"
              >
                LUXURY WASHING SINKS
              </th>
              <td
                class="MuiTableCell-root MuiTableCell-body MuiTableCell-alignRight MuiTableCell-sizeMedium css-177gid-MuiTableCell-root"
              >
                1559
              </td>
            </tr>
            <tr
              class="MuiTableRow-root css-1q1u3t4-MuiTableRow-root"
            >
              <th
                class="MuiTableCell-root MuiTableCell-body MuiTableCell-sizeMedium css-1ex1afd-MuiTableCell-root"
                scope="row"
              >
                COMPLETE WASHING
              </th>
              <td
                class="MuiTableCell-root MuiTableCell-body MuiTableCell-alignRight MuiTableCell-sizeMedium css-177gid-MuiTableCell-root"
              >
                859
              </td>
            </tr>
            <tr
              class="MuiTableRow-root css-1q1u3t4-MuiTableRow-root"
            >
              <th
                class="MuiTableCell-root MuiTableCell-body MuiTableCell-sizeMedium css-1ex1afd-MuiTableCell-root"
                scope="row"
              >
                HOLISTIC NANO-WASH
              </th>
              <td
                class="MuiTableCell-root MuiTableCell-body MuiTableCell-alignRight MuiTableCell-sizeMedium css-177gid-MuiTableCell-root"
              >
                1159
              </td>
            </tr>
            <tr
              class="MuiTableRow-root css-1q1u3t4-MuiTableRow-root"
            >
              <th
                class="MuiTableCell-root MuiTableCell-body MuiTableCell-sizeMedium css-1ex1afd-MuiTableCell-root"
                scope="row"
              >
                ANTIREAGENT
              </th>
              <td
                class="MuiTableCell-root MuiTableCell-body MuiTableCell-alignRight MuiTableCell-sizeMedium css-177gid-MuiTableCell-root"
              >
                1400
              </td>
            </tr>
            <tr
              class="MuiTableRow-root css-1q1u3t4-MuiTableRow-root"
            >
              <th
                class="MuiTableCell-root MuiTableCell-body MuiTableCell-sizeMedium css-1ex1afd-MuiTableCell-root"
                scope="row"
              >
                ANTIREAGENT COMPLEX
              </th>
              <td
                class="MuiTableCell-root MuiTableCell-body MuiTableCell-alignRight MuiTableCell-sizeMedium css-177gid-MuiTableCell-root"
              >
                1800
              </td>
            </tr>
            <tr
              class="MuiTableRow-root css-1q1u3t4-MuiTableRow-root"
            >
              <th
                class="MuiTableCell-root MuiTableCell-body MuiTableCell-sizeMedium css-1ex1afd-MuiTableCell-root"
                scope="row"
              >
                EXPRESS WASHING
              </th>
              <td
                class="MuiTableCell-root MuiTableCell-body MuiTableCell-alignRight MuiTableCell-sizeMedium css-177gid-MuiTableCell-root"
              >
                149
              </td>
            </tr>
            <tr
              class="MuiTableRow-root css-1q1u3t4-MuiTableRow-root"
            >
              <th
                class="MuiTableCell-root MuiTableCell-body MuiTableCell-sizeMedium css-1ex1afd-MuiTableCell-root"
                scope="row"
              >
                PURPLE
              </th>
              <td
                class="MuiTableCell-root MuiTableCell-body MuiTableCell-alignRight MuiTableCell-sizeMedium css-177gid-MuiTableCell-root"
              >
                250
              </td>
            </tr>
            <tr
              class="MuiTableRow-root css-1q1u3t4-MuiTableRow-root"
            >
              <th
                class="MuiTableCell-root MuiTableCell-body MuiTableCell-sizeMedium css-1ex1afd-MuiTableCell-root"
                scope="row"
              >
                GLASS
              </th>
              <td
                class="MuiTableCell-root MuiTableCell-body MuiTableCell-alignRight MuiTableCell-sizeMedium css-177gid-MuiTableCell-root"
              >
                150
              </td>
            </tr>
            <tr
              class="MuiTableRow-root css-1q1u3t4-MuiTableRow-root"
            >
              <th
                class="MuiTableCell-root MuiTableCell-body MuiTableCell-sizeMedium css-1ex1afd-MuiTableCell-root"
                scope="row"
              >
                PLASTIC POLISH
              </th>
              <td
                class="MuiTableCell-root MuiTableCell-body MuiTableCell-alignRight MuiTableCell-sizeMedium css-177gid-MuiTableCell-root"
              >
                159
              </td>
            </tr>
          </tbody>
        </table>
      </div>
    </div>
  </div>
</div>
`;
